[
  {"name": "Square wave oscillator", "uri": "examples/oscillator.js"},
  {"name": "Square wave oscillator with vibrato", "uri": "examples/oscillatorVibrato.js"},
  {"name": "Sound patch (percussion)", "uri": "examples/percussion.js"},
  {"name": "Sound font (piano)", "uri": "examples/piano.js"},
  {"name": "Multi Instrument, octave chord", "uri": "examples/octavechord.js"},
  {"name": "Sound wave oscillator with stop curve", "uri": "examples/oscillatorStopCurve.js"},
  {"name": "Sound wave oscillator with ADSR envelope", "uri": "examples/oscillatorADSR.js"},
  {"name": "Custom sine wave oscillator", "uri": "examples/formula.js"},
  {"name": "Custom sine wave oscillator 2", "uri": "examples/periodicFormulaGenerator.js"},
  {"name": "Chiptune Set", "uri": "examples/chiptune.js"},
  {"name": "Astro Robo Sasa lvl 1 music", "uri": "examples/astroRoboSasa.js"},
  {"name": "Bassline", "uri": "examples/bassline.js"},
  {"name": "Heavy Bassline Try 2", "uri": "examples/bassline2.js"},
  {"name": "Lemonade", "uri": "examples/lemonade.js"} 
]
